
{
    "comment" : "This file is used to help set default values when using the dotnet CLI extension Amazon.ElasticBeanstalk.Tools. For more information run \"dotnet eb --help\" from the project root.",
    "profile" : "default",
    "region"  : "us-east-1",
    "application" : "tf-beanstalk-asp-app",
    "environment" : "tf-beanstalk-asp-env",
    "solution-stack" : "64bit Windows Server 2019 v2.6.0 running IIS 10.0",
    "iis-website"    : "Default Web Site",
    "app-path"       : "/",
    "enable-xray"    : false,
    "health-check-url" : "/"
}